(module Mounting_hole (layer F.Cu) (tedit 5D0E5DED)
  (fp_text reference REF** (at -3.556 2.032) (layer F.SilkS) hide
    (effects (font (size 1 1) (thickness 0.2)))
  )
  (fp_text value REF** (at -3.556 0.762) (layer F.Fab) hide
    (effects (font (size 1 1) (thickness 0.2)))
  )
  (pad "" thru_hole circle (at 0 0) (size 5 5) (drill 3) (layers *.Cu *.Mask))
)
